{
    "current_page": 1,
    "data": [{
            "id": 30659,
            "name": " WEJOIN WJCB01LR56 - Barrera vehicular de 6 metros / 5 Segundos / SERVO Control / izquierda o derecha  \t",
            "model": "WJN0960001",
            "provider_model": "WJCB01SV-I LEFT 6 meters straight, left or righ direction, default left and 5 seconds",
            "list_price": "0.00",
            "product_flow_type": "product_flow_type_value",
            "product_type": "product_type_serial",
            "brand_name": "WEJOIN",
            "category_name": "Barreras Vehicular",
            "status": 1,
            "stage_name": "Nuevo",
            "stage_id": 1,
            "total_inventories": null,
            "branch_name": "SYS",
            "media": [{
                "id": 31325,
                "url": "https://fasyl.tvc.mx/media/33064/DH-HACHFW1239TN-ALED-0360B.jpg"
            }]
        },
        {
            "id": 1984,
            "name": "ALFA cARSN19 - Antena OMNI para interior / Conexion RP-SMA / Frecuencia 2.4 GHZ / I  MPEDA  NCIA 50 OHM / 9 dBI",
            "model": "32224",
            "provider_model": "ARSN19",
            "list_price": "0.00",
            "product_flow_type": "product_flow_type_volume",
            "product_type": "product_type_batched",
            "brand_name": "ALFA",
            "category_name": "Antenas",
            "status": 1,
            "stage_name": "Outlet",
            "stage_id": 3,
            "total_inventories": null,
            "branch_name": "SYS",
            "media": [{
                "id": 19069,
                "url": "https://fasyl.tvc.mx/media/33064/DH-HACHFW1239TN-ALED-0360B.jpg"
            }]
        },
       
    ],
    "first_page_url": "page=1",
    "from": 1,
    "last_page": 89,
    "last_page_url": "page=89",
    "next_page_url": "page=2",
    "path": "/products",
    "per_page": 40,
    "prev_page_url": null,
    "to": 40,
    "total": 3544
}
